{
  "articles": [
    {
      "id": 3,
      "content": "<p>Regular polygon Time LimiRegular polygon Time Limi</p><p>Regular polygon Time Limi</p><p><span style=\"font-size: 36px; color: rgb(255, 192, 0);\">Regular polygon Time LimiRegular polygon Time Limi</span></p><p><span style=\"font-size: 24px;\">Regular polygon Time Limi</span></p><p><br/></p><p><br/></p>",
      "title": " HDU6055 Regular polygon（2017多校第二场）",
      "summary": "Regular polygon Time Limit: 3000/1000 MS (Java/Others)    Memory Limit: 65536/65536 K (Java/Others) Total Submission(s): 1087    Accepted Submission(s): 405 Problem Description On a two-di",
      "data": "2017-07-28",
      "time": "10:34",
      "numOfRead": 0,
      "numOfComment": 0,
      "ownerId": "1"
    },
    {
      "id": 4,
      "content": "<p style=\"text-align: center;\"><span style=\"border: 1px solid rgb(0, 0, 0); font-family: arial, helvetica, sans-serif; font-size: 24px; background-color: rgb(192, 80, 77);\">asljdlklad</span></p>",
      "title": " [转][专题学习] [计算几何]",
      "summary": "这两天在学习计算几何，随便说说自己的学习过程吧。 　　基本的叉积、点积和凸包等东西就不多说什么了，网上一搜一大堆，切一些题目基本熟悉了就差不多了。 　　一些基本的题目可以自己搜索，比如这个blog：http://blog.sina.com.cn/s/blog_49c5866c0100f3om.html 　　接下来，研究了半平面交，思想方法看07年朱泽园的国家队论文，模板代码参考自",
      "data": "2017-07-07",
      "time": "13:54",
      "numOfRead": 0,
      "numOfComment": 0,
      "ownerId": "1"
    },
    {
      "id": 5,
      "content": "",
      "title": " HDU6055 Regular polygon（2017多校第二场）",
      "summary": "Regular polygon Time Limit: 3000/1000 MS (Java/Others)    Memory Limit: 65536/65536 K (Java/Others) Total Submission(s): 1087    Accepted Submission(s): 405 Problem Description On a two-di",
      "data": "2017-07-28",
      "time": "10:34",
      "numOfRead": 0,
      "numOfComment": 0,
      "ownerId": "1"
    },
    {
      "id": 6,
      "content": "",
      "title": " [转][专题学习] [计算几何]",
      "summary": "这两天在学习计算几何，随便说说自己的学习过程吧。 　　基本的叉积、点积和凸包等东西就不多说什么了，网上一搜一大堆，切一些题目基本熟悉了就差不多了。 　　一些基本的题目可以自己搜索，比如这个blog：http://blog.sina.com.cn/s/blog_49c5866c0100f3om.html 　　接下来，研究了半平面交，思想方法看07年朱泽园的国家队论文，模板代码参考自",
      "data": "2017-07-07",
      "time": "13:54",
      "numOfRead": 0,
      "numOfComment": 0,
      "ownerId": "1"
    },
    {
      "id": 7,
      "content": "",
      "title": " HDU6055 Regular polygon（2017多校第二场）",
      "summary": "Regular polygon Time Limit: 3000/1000 MS (Java/Others)    Memory Limit: 65536/65536 K (Java/Others) Total Submission(s): 1087    Accepted Submission(s): 405 Problem Description On a two-di",
      "data": "2017-07-28",
      "time": "10:34",
      "numOfRead": 0,
      "numOfComment": 0,
      "ownerId": "1"
    },
    {
      "id": 8,
      "content": "",
      "title": " [转][专题学习] [计算几何]",
      "summary": "这两天在学习计算几何，随便说说自己的学习过程吧。 　　基本的叉积、点积和凸包等东西就不多说什么了，网上一搜一大堆，切一些题目基本熟悉了就差不多了。 　　一些基本的题目可以自己搜索，比如这个blog：http://blog.sina.com.cn/s/blog_49c5866c0100f3om.html 　　接下来，研究了半平面交，思想方法看07年朱泽园的国家队论文，模板代码参考自",
      "data": "2017-07-07",
      "time": "13:54",
      "numOfRead": 0,
      "numOfComment": 0,
      "ownerId": "1"
    },
    {
      "title": "tgtgtgtgtgtg",
      "id": 9,
      "ownerId": "1",
      "content": "<p><span style=\"background-color: rgb(255, 255, 0);\">tgtgtgtga</span></p>"
    }
  ],
  "users": [
    {
      "id": 1,
      "username": "admin",
      "password": "123456",
      "name": "admin"
    }
  ]
}